module github.com/scionproto/scion

require (
	github.com/antlr/antlr4 v0.0.0-20181218183524-be58ebffde8e
	github.com/bazelbuild/rules_go v0.29.0
	github.com/buildkite/go-buildkite/v2 v2.8.1
	github.com/cloud9-tools/go-galoisfield v0.0.0-20160311182916-a8cf2bffadf0
	github.com/dchest/cmac v0.0.0-20150527144652-62ff55a1048c
	github.com/deepmap/oapi-codegen v1.9.0
	github.com/emojisum/emojisum v0.0.0-20210601164913-cb9db27ebae2
	github.com/fatih/color v1.9.0
	github.com/getkin/kin-openapi v0.80.0
	github.com/go-chi/chi/v5 v5.0.2
	github.com/go-chi/cors v1.1.1
	github.com/golang/mock v1.6.0
	github.com/golang/protobuf v1.5.2
	github.com/google/go-cmp v0.5.6
	github.com/google/go-containerregistry v0.5.1
	github.com/google/gopacket v1.1.16-0.20190123011826-102d5ca2098c
	github.com/grpc-ecosystem/go-grpc-middleware v1.3.0
	github.com/grpc-ecosystem/go-grpc-prometheus v1.2.0
	github.com/grpc-ecosystem/grpc-opentracing v0.0.0-20180507213350-8e809c8a8645
	github.com/hashicorp/golang-lru v0.5.1
	github.com/iancoleman/strcase v0.0.0-20190422225806-e506e3ef7365
	github.com/lestrrat-go/jwx v1.2.7
	github.com/lucas-clemente/quic-go v0.23.0
	github.com/mattn/go-isatty v0.0.14
	github.com/mattn/go-sqlite3 v1.14.4
	github.com/opentracing/opentracing-go v1.2.0
	github.com/patrickmn/go-cache v2.1.1-0.20180815053127-5633e0862627+incompatible
	github.com/pelletier/go-toml v1.9.4
	github.com/pkg/errors v0.9.1
	github.com/prometheus/client_golang v1.11.0
	github.com/sergi/go-diff v1.2.0
	github.com/smartystreets/goconvey v1.6.7
	github.com/songgao/water v0.0.0-20190725173103-fd331bda3f4b
	github.com/spf13/cobra v1.2.1
	github.com/spf13/pflag v1.0.5
	github.com/spf13/viper v1.9.0
	github.com/stretchr/testify v1.7.0
	github.com/uber/jaeger-client-go v2.29.1+incompatible
	github.com/vishvananda/netlink v1.1.1-0.20201029203352-d40f9887b852
	github.com/xeipuuv/gojsonschema v1.2.0
	go.uber.org/goleak v1.1.10
	go.uber.org/zap v1.17.0
	golang.org/x/crypto v0.0.0-20210921155107-089bfa567519
	golang.org/x/net v0.0.0-20220127200216-cd36cc0744dd
	golang.org/x/sync v0.0.0-20210220032951-036812b2e83c
	golang.org/x/tools v0.1.5
	google.golang.org/grpc v1.40.0
	google.golang.org/grpc/examples v0.0.0-20210630181457-52546c5d89b7
	google.golang.org/protobuf v1.27.1
	gopkg.in/yaml.v2 v2.4.0
	inet.af/netaddr v0.0.0-20210903134321-85fa6c94624e
)

require (
	github.com/beorn7/perks v1.0.1 // indirect
	github.com/cenkalti/backoff v2.2.1+incompatible // indirect
	github.com/cespare/xxhash/v2 v2.1.1 // indirect
	github.com/cheekybits/genny v1.0.0 // indirect
	github.com/codahale/hdrhistogram v0.0.0-20161010025455-3a0bb77429bd // indirect
	github.com/davecgh/go-spew v1.1.1 // indirect
	github.com/decred/dcrd/dcrec/secp256k1/v4 v4.0.0-20210816181553-5444fa50b93d // indirect
	github.com/fsnotify/fsnotify v1.5.1 // indirect
	github.com/ghodss/yaml v1.0.0 // indirect
	github.com/go-openapi/jsonpointer v0.19.5 // indirect
	github.com/go-openapi/swag v0.19.14 // indirect
	github.com/go-task/slim-sprig v0.0.0-20210107165309-348f09dbbbc0 // indirect
	github.com/goccy/go-json v0.7.8 // indirect
	github.com/google/go-querystring v1.0.1-0.20190318165438-c8c88dbee036 // indirect
	github.com/gopherjs/gopherjs v0.0.0-20181017120253-0766667cb4d1 // indirect
	github.com/hashicorp/hcl v1.0.0 // indirect
	github.com/inconshreveable/mousetrap v1.0.0 // indirect
	github.com/josharian/intern v1.0.0 // indirect
	github.com/jtolds/gls v4.20.0+incompatible // indirect
	github.com/lestrrat-go/backoff/v2 v2.0.8 // indirect
	github.com/lestrrat-go/blackmagic v1.0.0 // indirect
	github.com/lestrrat-go/httpcc v1.0.0 // indirect
	github.com/lestrrat-go/iter v1.0.1 // indirect
	github.com/lestrrat-go/option v1.0.0 // indirect
	github.com/magiconair/properties v1.8.5 // indirect
	github.com/mailru/easyjson v0.7.7 // indirect
	github.com/marten-seemann/qtls-go1-16 v0.1.4 // indirect
	github.com/marten-seemann/qtls-go1-17 v0.1.0 // indirect
	github.com/mattn/go-colorable v0.1.8 // indirect
	github.com/matttproud/golang_protobuf_extensions v1.0.1 // indirect
	github.com/mdlayher/raw v0.0.0-20191009151244-50f2db8cc065 // indirect
	github.com/mitchellh/mapstructure v1.4.2 // indirect
	github.com/nxadm/tail v1.4.8 // indirect
	github.com/onsi/ginkgo v1.16.4 // indirect
	github.com/pmezard/go-difflib v1.0.0 // indirect
	github.com/prometheus/client_model v0.2.0 // indirect
	github.com/prometheus/common v0.32.0 // indirect
	github.com/prometheus/procfs v0.6.0 // indirect
	github.com/smartystreets/assertions v1.0.0 // indirect
	github.com/spf13/afero v1.6.0 // indirect
	github.com/spf13/cast v1.4.1 // indirect
	github.com/spf13/jwalterweatherman v1.1.0 // indirect
	github.com/subosito/gotenv v1.2.0 // indirect
	github.com/uber/jaeger-lib v2.0.0+incompatible // indirect
	github.com/vishvananda/netns v0.0.0-20200728191858-db3c7e526aae // indirect
	github.com/xeipuuv/gojsonpointer v0.0.0-20180127040702-4e3ac2762d5f // indirect
	github.com/xeipuuv/gojsonreference v0.0.0-20180127040603-bd5ef7bd5415 // indirect
	go.uber.org/atomic v1.7.0 // indirect
	go.uber.org/multierr v1.6.0 // indirect
	go4.org/intern v0.0.0-20210108033219-3eb7198706b2 // indirect
	go4.org/unsafe/assume-no-moving-gc v0.0.0-20201222180813-1025295fd063 // indirect
	golang.org/x/lint v0.0.0-20210508222113-6edffad5e616 // indirect
	golang.org/x/mod v0.4.2 // indirect
	golang.org/x/sys v0.0.0-20211216021012-1d35b9e2eb4e // indirect
	golang.org/x/text v0.3.7 // indirect
	golang.org/x/xerrors v0.0.0-20200804184101-5ec99f83aff1 // indirect
	google.golang.org/genproto v0.0.0-20210828152312-66f60bf46e71 // indirect
	gopkg.in/ini.v1 v1.63.2 // indirect
	gopkg.in/tomb.v1 v1.0.0-20141024135613-dd632973f1e7 // indirect
	gopkg.in/yaml.v3 v3.0.0-20210107192922-496545a6307b // indirect
)

go 1.17
